…
``` r
mdl_compare$get_tabular_metrics(ases = FALSE) %>% 
  na.omit()
```

    ## # A tibble: 1,363 x 5
    ##    Model            Time      f      ll    ul
    ##    <chr>           <dbl>  <dbl>   <dbl> <dbl>
    ##  1 VARS AIC Both B    49 28.5    22.1   34.9 
    ##  2 VARS AIC Both B    50 21.2    11.5   30.9 
    ##  3 VARS AIC Both B    51 21.3    14.2   28.3 
    ##  4 VARS AIC Both B    52  4.16   -4.93  13.2 
    ##  5 VARS AIC Both B    53 15.4     9.00  21.7 
    ##  6 VARS AIC Both B    54  8.48    0.172 16.8 
    ##  7 VARS AIC Both B    55  4.62   -1.46  10.7 
    ##  8 VARS AIC Both B    56  0.243  -7.80   8.28
    ##  9 VARS AIC Both B    57 -4.97  -11.8    1.84
    ## 10 VARS AIC Both B    58  2.15   -5.94  10.2 
    ## # ... with 1,353 more rows
…
