…
``` r
mdl_build$summarize_build()
```

    ## # A tibble: 22 x 9
    ##    Model   select trend_type season     p SigVar   OriginalVar   Lag MaxLag
    ##    <chr>   <chr>  <chr>       <dbl> <dbl> <fct>    <chr>       <dbl>  <dbl>
    ##  1 VARS A… aic    trend           0     7 nfjobsc… nfjobschg      -1     -1
    ##  2 VARS A… aic    trend           0     7 ipichg.… ipichg         -1     -1
    ##  3 VARS A… aic    trend           0     7 treas10… treas10yr      -1     -4
    ##  4 VARS A… aic    trend           0     7 cpichg.… cpichg         -1     -1
    ##  5 VARS A… aic    trend           0     7 invento… inventorie…    -1     -5
    ##  6 VARS A… aic    trend           0     7 ppichg.… ppichg         -1     -1
    ##  7 VARS A… aic    trend           0     7 gdp_cha… gdp_change     -2     -4
    ##  8 VARS A… aic    trend           0     7 invento… inventorie…    -2     -5
    ##  9 VARS A… aic    trend           0     7 popchg.… popchg         -2     -4
    ## 10 VARS A… aic    trend           0     7 housing… housingper…    -2     -4
    ## # … with 12 more rows
…
``` r
mdl_build$summarize_build()
```

    ## # A tibble: 22 x 9
    ##    Model   select trend_type season     p SigVar   OriginalVar   Lag MaxLag
    ##    <chr>   <chr>  <chr>       <dbl> <dbl> <fct>    <chr>       <dbl>  <dbl>
    ##  1 VARS A… aic    trend           0     7 nfjobsc… nfjobschg      -1     -1
    ##  2 VARS A… aic    trend           0     7 ipichg.… ipichg         -1     -1
    ##  3 VARS A… aic    trend           0     7 treas10… treas10yr      -1     -4
    ##  4 VARS A… aic    trend           0     7 cpichg.… cpichg         -1     -1
    ##  5 VARS A… aic    trend           0     7 invento… inventorie…    -1     -5
    ##  6 VARS A… aic    trend           0     7 ppichg.… ppichg         -1     -1
    ##  7 VARS A… aic    trend           0     7 gdp_cha… gdp_change     -2     -4
    ##  8 VARS A… aic    trend           0     7 invento… inventorie…    -2     -5
    ##  9 VARS A… aic    trend           0     7 popchg.… popchg         -2     -4
    ## 10 VARS A… aic    trend           0     7 housing… housingper…    -2     -4
    ## # … with 12 more rows
…
``` r
mdl_build$summarize_build()
```

    ## # A tibble: 21 x 9
    ##    Model   select trend_type season     p SigVar   OriginalVar   Lag MaxLag
    ##    <chr>   <chr>  <chr>       <dbl> <dbl> <fct>    <chr>       <dbl>  <dbl>
    ##  1 VARS A… aic    both            0     7 nfjobsc… nfjobschg      -1     -1
    ##  2 VARS A… aic    both            0     7 ipichg.… ipichg         -1     -1
    ##  3 VARS A… aic    both            0     7 treas10… treas10yr      -1     -4
    ##  4 VARS A… aic    both            0     7 cpichg.… cpichg         -1     -1
    ##  5 VARS A… aic    both            0     7 invento… inventorie…    -1     -2
    ##  6 VARS A… aic    both            0     7 ppichg.… ppichg         -1     -1
    ##  7 VARS A… aic    both            0     7 gdp_cha… gdp_change     -2     -4
    ##  8 VARS A… aic    both            0     7 invento… inventorie…    -2     -2
    ##  9 VARS A… aic    both            0     7 popchg.… popchg         -2     -4
    ## 10 VARS A… aic    both            0     7 housing… housingper…    -2     -4
    ## # … with 11 more rows
…
``` r
mdl_build$summarize_build()
```

    ## # A tibble: 21 x 9
    ##    Model   select trend_type season     p SigVar   OriginalVar   Lag MaxLag
    ##    <chr>   <chr>  <chr>       <dbl> <dbl> <fct>    <chr>       <dbl>  <dbl>
    ##  1 VARS A… aic    both            0     7 nfjobsc… nfjobschg      -1     -1
    ##  2 VARS A… aic    both            0     7 ipichg.… ipichg         -1     -1
    ##  3 VARS A… aic    both            0     7 treas10… treas10yr      -1     -4
    ##  4 VARS A… aic    both            0     7 cpichg.… cpichg         -1     -1
    ##  5 VARS A… aic    both            0     7 invento… inventorie…    -1     -2
    ##  6 VARS A… aic    both            0     7 ppichg.… ppichg         -1     -1
    ##  7 VARS A… aic    both            0     7 gdp_cha… gdp_change     -2     -4
    ##  8 VARS A… aic    both            0     7 invento… inventorie…    -2     -2
    ##  9 VARS A… aic    both            0     7 popchg.… popchg         -2     -4
    ## 10 VARS A… aic    both            0     7 housing… housingper…    -2     -4
    ## # … with 11 more rows
…
``` r
mdl_build$summarize_build()
```

    ## # A tibble: 21 x 9
    ##    Model   select trend_type season     p SigVar   OriginalVar   Lag MaxLag
    ##    <chr>   <chr>  <chr>       <dbl> <dbl> <fct>    <chr>       <dbl>  <dbl>
    ##  1 VARS A… aic    both            0     7 nfjobsc… nfjobschg      -1     -1
    ##  2 VARS A… aic    both            0     7 ipichg.… ipichg         -1     -1
    ##  3 VARS A… aic    both            0     7 treas10… treas10yr      -1     -4
    ##  4 VARS A… aic    both            0     7 cpichg.… cpichg         -1     -1
    ##  5 VARS A… aic    both            0     7 invento… inventorie…    -1     -2
    ##  6 VARS A… aic    both            0     7 ppichg.… ppichg         -1     -1
    ##  7 VARS A… aic    both            0     7 gdp_cha… gdp_change     -2     -4
    ##  8 VARS A… aic    both            0     7 invento… inventorie…    -2     -2
    ##  9 VARS A… aic    both            0     7 popchg.… popchg         -2     -4
    ## 10 VARS A… aic    both            0     7 housing… housingper…    -2     -4
    ## # … with 11 more rows
…
``` r
mdl_build$summarize_build()
```

    ## # A tibble: 21 x 9
    ##    Model   select trend_type season     p SigVar   OriginalVar   Lag MaxLag
    ##    <chr>   <chr>  <chr>       <dbl> <dbl> <fct>    <chr>       <dbl>  <dbl>
    ##  1 VARS A… aic    both            0     7 nfjobsc… nfjobschg      -1     -1
    ##  2 VARS A… aic    both            0     7 ipichg.… ipichg         -1     -1
    ##  3 VARS A… aic    both            0     7 treas10… treas10yr      -1     -4
    ##  4 VARS A… aic    both            0     7 cpichg.… cpichg         -1     -1
    ##  5 VARS A… aic    both            0     7 invento… inventorie…    -1     -2
    ##  6 VARS A… aic    both            0     7 ppichg.… ppichg         -1     -1
    ##  7 VARS A… aic    both            0     7 gdp_cha… gdp_change     -2     -4
    ##  8 VARS A… aic    both            0     7 invento… inventorie…    -2     -2
    ##  9 VARS A… aic    both            0     7 popchg.… popchg         -2     -4
    ## 10 VARS A… aic    both            0     7 housing… housingper…    -2     -4
    ## # … with 11 more rows
…
``` r
mdl_build$summarize_build()
```

    ## # A tibble: 24 x 9
    ##    Model   select trend_type season     p SigVar   OriginalVar   Lag MaxLag
    ##    <chr>   <chr>  <chr>       <dbl> <dbl> <fct>    <chr>       <dbl>  <dbl>
    ##  1 VARS A… aic    none            0     7 nfjobsc… nfjobschg      -1     -1
    ##  2 VARS A… aic    none            0     7 ipichg.… ipichg         -1     -1
    ##  3 VARS A… aic    none            0     7 treas10… treas10yr      -1     -4
    ##  4 VARS A… aic    none            0     7 cpichg.… cpichg         -1     -1
    ##  5 VARS A… aic    none            0     7 invento… inventorie…    -1     -5
    ##  6 VARS A… aic    none            0     7 ppichg.… ppichg         -1     -1
    ##  7 VARS A… aic    none            0     7 popchg.… popchg         -1     -4
    ##  8 VARS A… aic    none            0     7 gdp_cha… gdp_change     -2     -4
    ##  9 VARS A… aic    none            0     7 invento… inventorie…    -2     -5
    ## 10 VARS A… aic    none            0     7 popchg.… popchg         -2     -4
    ## # … with 14 more rows
…
``` r
mdl_build$summarize_build()
```

    ## # A tibble: 24 x 9
    ##    Model   select trend_type season     p SigVar   OriginalVar   Lag MaxLag
    ##    <chr>   <chr>  <chr>       <dbl> <dbl> <fct>    <chr>       <dbl>  <dbl>
    ##  1 VARS A… aic    none            0     7 nfjobsc… nfjobschg      -1     -1
    ##  2 VARS A… aic    none            0     7 ipichg.… ipichg         -1     -1
    ##  3 VARS A… aic    none            0     7 treas10… treas10yr      -1     -4
    ##  4 VARS A… aic    none            0     7 cpichg.… cpichg         -1     -1
    ##  5 VARS A… aic    none            0     7 invento… inventorie…    -1     -5
    ##  6 VARS A… aic    none            0     7 ppichg.… ppichg         -1     -1
    ##  7 VARS A… aic    none            0     7 popchg.… popchg         -1     -4
    ##  8 VARS A… aic    none            0     7 gdp_cha… gdp_change     -2     -4
    ##  9 VARS A… aic    none            0     7 invento… inventorie…    -2     -5
    ## 10 VARS A… aic    none            0     7 popchg.… popchg         -2     -4
    ## # … with 14 more rows
…
    ## $forecasts
    ## # A tibble: 580 x 5
    ##    Model              Time     f    ll    ul
    ##    <chr>             <dbl> <dbl> <dbl> <dbl>
    ##  1 VARS AIC Both - R     1    NA    NA    NA
    ##  2 VARS AIC Both - R     2    NA    NA    NA
    ##  3 VARS AIC Both - R     3    NA    NA    NA
    ##  4 VARS AIC Both - R     4    NA    NA    NA
    ##  5 VARS AIC Both - R     5    NA    NA    NA
    ##  6 VARS AIC Both - R     6    NA    NA    NA
    ##  7 VARS AIC Both - R     7    NA    NA    NA
    ##  8 VARS AIC Both - R     8    NA    NA    NA
    ##  9 VARS AIC Both - R     9    NA    NA    NA
    ## 10 VARS AIC Both - R    10    NA    NA    NA
    ## # … with 570 more rows
    ## 
    ## $batch_rects
    ##    xstart xend Batch
    ## 1      43   44     1
    ## 2      45   46     1
    ## 3      47   48     1
    ## 4      49   50     1
    ## 5      51   52     1
…
    ## # A tibble: 148 x 5
    ##    Model                    ASE Time_Test_Start Time_Test_End Batch
    ##    <chr>                  <dbl>           <dbl>         <dbl> <dbl>
    ##  1 VARS AIC Both - R    124.                 43            44     1
    ##  2 VARS AIC Both - R    338.                 45            46     2
    ##  3 VARS AIC Both - R 998604.                 47            48     3
    ##  4 VARS AIC Both - R    321.                 49            50     4
    ##  5 VARS AIC Both - R    159.                 51            52     5
    ##  6 VARS AIC Both - R     11.1                53            54     6
    ##  7 VARS AIC Both - R      0.291              55            56     7
    ##  8 VARS AIC Both - R     31.8                57            58     8
    ##  9 VARS AIC Both - R     33.9                59            60     9
    ## 10 VARS AIC Both - R 709911.                 61            62    10
    ## # … with 138 more rows
…
    ## $forecasts
    ## # A tibble: 232 x 5
    ##    Model              Time     f    ll    ul
    ##    <chr>             <dbl> <dbl> <dbl> <dbl>
    ##  1 VARS AIC None - R     1    NA    NA    NA
    ##  2 VARS AIC None - R     2    NA    NA    NA
    ##  3 VARS AIC None - R     3    NA    NA    NA
    ##  4 VARS AIC None - R     4    NA    NA    NA
    ##  5 VARS AIC None - R     5    NA    NA    NA
    ##  6 VARS AIC None - R     6    NA    NA    NA
    ##  7 VARS AIC None - R     7    NA    NA    NA
    ##  8 VARS AIC None - R     8    NA    NA    NA
    ##  9 VARS AIC None - R     9    NA    NA    NA
    ## 10 VARS AIC None - R    10    NA    NA    NA
    ## # … with 222 more rows
    ## 
    ## $batch_rects
    ##    xstart xend Batch
    ## 1      43   44     1
    ## 2      45   46     1
    ## 3      47   48     1
    ## 4      49   50     1
    ## 5      51   52     1
…
    ## # A tibble: 37 x 5
    ##    Model                ASE Time_Test_Start Time_Test_End Batch
    ##    <chr>              <dbl>           <dbl>         <dbl> <dbl>
    ##  1 VARS AIC None - R  36.8               43            44     1
    ##  2 VARS AIC None - R 108.                45            46     2
    ##  3 VARS AIC None - R 421.                47            48     3
    ##  4 VARS AIC None - R 167.                49            50     4
    ##  5 VARS AIC None - R 111.                51            52     5
    ##  6 VARS AIC None - R   6.91              53            54     6
    ##  7 VARS AIC None - R   4.69              55            56     7
    ##  8 VARS AIC None - R  29.6               57            58     8
    ##  9 VARS AIC None - R  46.6               59            60     9
    ## 10 VARS AIC None - R 228.                61            62    10
    ## # … with 27 more rows
…
